<svg width="126" height="36" viewBox="0 0 126 36" fill="none" xmlns="http://www.w3.org/2000/svg">
<path d="M26.5563 28V9.604H29.6883V12.016C30.5523 10.12 32.0043 9.172 34.0443 9.172C35.1963 9.172 36.1443 9.484 36.8883 10.108L36.4203 13.06C35.6523 12.532 34.7763 12.268 33.7923 12.268C32.7123 12.268 31.7523 12.688 30.9123 13.528C30.0963 14.368 29.6883 15.736 29.6883 17.632V28H26.5563ZM50.3934 28V26.308C48.8814 27.724 47.1414 28.432 45.1734 28.432C43.2294 28.432 41.6694 27.904 40.4934 26.848C39.3414 25.768 38.7654 24.232 38.7654 22.24C38.7654 20.248 39.4254 18.736 40.7454 17.704C42.0654 16.672 43.6974 16.156 45.6414 16.156C47.4174 16.156 49.0014 16.552 50.3934 17.344V16.048C50.3934 14.512 50.0454 13.444 49.3494 12.844C48.6774 12.22 47.6934 11.908 46.3974 11.908C44.5494 11.908 42.7614 12.52 41.0334 13.744L40.1334 11.116C42.1014 9.82 44.3214 9.172 46.7934 9.172C51.1614 9.172 53.3454 11.38 53.3454 15.796V28H50.3934ZM45.6414 25.66C47.4414 25.66 49.0254 24.856 50.3934 23.248V20.08C49.0734 19.264 47.6334 18.856 46.0734 18.856C44.8014 18.856 43.7574 19.144 42.9414 19.72C42.1254 20.296 41.7174 21.136 41.7174 22.24C41.7174 23.272 42.0534 24.1 42.7254 24.724C43.4214 25.348 44.3934 25.66 45.6414 25.66ZM70.1346 28V16.876C70.1346 15.22 69.7746 14.008 69.0546 13.24C68.3586 12.448 67.3986 12.052 66.1746 12.052C63.3426 12.052 61.9266 13.636 61.9266 16.804V28H58.7946V9.604H61.9266V11.476C63.0546 9.94 64.6386 9.172 66.6786 9.172C68.8386 9.172 70.4706 9.832 71.5746 11.152C72.7026 12.448 73.2666 14.536 73.2666 17.416V28H70.1346ZM84.7318 35.452L83.2198 33.004C85.8838 32.86 87.7198 32.392 88.7278 31.6C89.7598 30.832 90.2758 29.776 90.2758 28.432V26.2C89.1958 27.688 87.6118 28.432 85.5238 28.432C83.3638 28.432 81.5638 27.592 80.1238 25.912C78.7078 24.232 77.9998 21.856 77.9998 18.784C77.9998 15.808 78.6958 13.468 80.0878 11.764C81.5038 10.036 83.3518 9.172 85.6318 9.172C87.5518 9.172 89.0998 9.82 90.2758 11.116V9.604H93.4078V27.244C93.4078 30.052 92.6518 32.08 91.1398 33.328C89.6518 34.576 87.5158 35.284 84.7318 35.452ZM86.1718 25.516C86.9398 25.516 87.6958 25.288 88.4398 24.832C89.2078 24.352 89.8198 23.716 90.2758 22.924V14.5C89.8438 13.78 89.2318 13.192 88.4398 12.736C87.6478 12.28 86.8918 12.052 86.1718 12.052C84.5398 12.052 83.2918 12.64 82.4278 13.816C81.5878 14.968 81.1678 16.624 81.1678 18.784C81.1678 20.872 81.6238 22.516 82.5358 23.716C83.4718 24.916 84.6838 25.516 86.1718 25.516ZM106.457 28.432C103.961 28.432 101.969 27.544 100.481 25.768C99.0169 23.968 98.2849 21.64 98.2849 18.784C98.2849 15.784 99.0289 13.432 100.517 11.728C102.005 10.024 103.985 9.172 106.457 9.172C108.665 9.172 110.477 9.916 111.893 11.404C113.333 12.868 114.053 15.04 114.053 17.92C114.053 18.592 114.017 19.288 113.945 20.008H101.489C101.609 21.688 102.125 23.044 103.037 24.076C103.973 25.084 105.137 25.588 106.529 25.588C108.065 25.588 109.385 25.036 110.489 23.932L112.397 26.056C110.813 27.64 108.833 28.432 106.457 28.432ZM101.453 17.344H110.885C110.861 15.448 110.405 14.08 109.517 13.24C108.653 12.376 107.633 11.944 106.457 11.944C105.041 11.944 103.877 12.4 102.965 13.312C102.053 14.2 101.549 15.544 101.453 17.344Z" fill="#FDFFFC"/>
<path d="M10.8709 2L18.5669 10.49C20.0889 12.1679 21.1256 14.3061 21.5459 16.6341C21.9662 18.9621 21.7512 21.3753 20.9281 23.5684C20.105 25.7616 18.7107 27.6362 16.9218 28.9551C15.1328 30.2741 13.0294 30.978 10.8777 30.978C8.72599 30.978 6.62262 30.2741 4.83363 28.9551C3.04465 27.6362 1.65044 25.7616 0.827338 23.5684C0.00424069 21.3753 -0.210757 18.9621 0.209539 16.6341C0.629835 14.3061 1.66654 12.1679 3.18853 10.49L10.8709 2Z" fill="#F61817"/>
</svg>
